902877 786159 525
692132 657140 442
854732 272658 525
828589 340125 509
874114 698745 525
708107 511777 509
321561 213466 443
201832 752825 509
114877 658480 509
434398 628259 509
680597 522553 509
217068 433606 449
201120 321303 443
816284 504331 509
514286 583522 452
679789 463722 509
340143 507595 449
904365 257430 525
138079 524557 470
181043 338376 443
695624 705915 504
353849 383504 423
550090 890935 525
515307 445419 470
650682 506399 509
432814 603074 470
338291 814112 509
16347 15403 253
866821 122622 525
447561 417885 418
539775 2047 470
979590 572988 525
498515 238972 449
351433 826222 509
104337 333917 443
669193 908597 525
850543 470433 525
569824 500167 470
296933 87876 443
876493 498232 525
68731 882518 525
849661 39171 525
87469 530011 470
415332 871516 525
942303 733661 525
832223 550581 509
789713 241668 509
828018 795309 468
139373 773518 509
615262 295278 470
414850 375849 449
469519 353913 449
764964 43927 509
876447 569429 525
533705 313628 470
262207 360561 441
906916 638880 525
649653 712807 504
8950 687575 509
563990 337134 470
705312 152995 509
90944 474372 449
558559 989414 525
478733 679803 509
603655 250439 470
485228 315106 449
416754 852871 525
10520 301927 443
699961 317856 509
813116 167597 509
63371 162953 383
677346 692825 442
755782 483298 509
932922 949924 507
84565 612182 470
622787 931489 525
89559 346142 443
653486 730681 504
363146 284188 441
953263 221200 525
549333 95349 470
543314 676668 509
16857 281189 443
166147 892123 525
654118 106044 509
899784 65842 525
812000 56138 509
414432 506553 444
165700 698457 509
620128 52511 470
567488 339015 470
206068 979616 525
461459 455226 444
255951 435071 449
955430 223713 525
703295 891277 525
428927 551961 470
153314 46190 375
618092 678891 509
9347 140329 354
282838 115926 443
659600 68233 509
794237 783108 437
234643 301589 407
728406 227446 509
700142 161797 509
884531 479809 525
219172 116989 386
585049 554799 434
902664 698384 525
281647 76969 443
780041 107536 509
95833 589173 470
353895 47468 443
82735 44445 351
5612 401884 443
269501 809389 509
255548 559258 470
363731 802472 509
324573 511651 449
64726 752868 509
166339 181224 365
536713 995377 525
769495 351807 509
731611 238723 509
133954 77613 354
299752 983106 525
1795 858868 525
150835 694424 509
6824 970869 525
71018 898515 525
636079 424387 509
462703 613892 470
57158 213446 383
697028 600275 509
571608 734389 509
328598 426410 449
343959 572706 470
272133 83354 443
937203 244694 525
211807 659518 509
227769 869428 525
508033 614787 470
40100 290779 443
772376 835396 468
499675 96308 449
327232 109004 443
295327 172607 443
65221 18676 340
442964 394736 449
917607 412241 525
237573 153503 443
514985 935070 525
550275 623762 447
314133 773595 509
957094 700538 525
568795 346104 470
616242 635189 509
286133 383052 441
983310 135485 525
683253 675389 385
346947 926871 525
805866 673570 504
688139 21067 509
84366 282700 443
293533 840380 525
326005 463946 449
13733 248544 443
194461 318814 443
910908 216971 525
78129 927565 525
844055 429314 525
568311 625815 447
598202 827572 509
731122 910170 525
607729 254785 470
515037 444728 470
220951 271663 443
22904 268436 443
118549 122375 336
94998 105443 341
347143 535345 470
472399 927161 525
263579 751974 509
599962 64496 470
64979 840778 525
498187 220937 449
63517 910304 525
312234 795576 509
215656 518702 470
475771 298891 449
577350 877558 525
15515 722670 509
951439 256455 525
844368 459362 525
481099 546138 470
101830 618638 470
548999 548255 333
620672 356758 470
156302 663409 509
310360 448852 449
529412 294423 470
148014 417148 449
321644 926741 525
559016 310003 470
798289 212987 509
686697 603122 509
504785 673447 509
874052 692818 525
752293 204189 509
508377 140535 449
608567 116674 470
325466 491909 449
19511 977071 525
190621 249504 443
39370 684328 509
341777 693686 509
725218 880232 525
