1 10
100 200
201 210
900 1000
1 2
1 3
1 4
1 5
1 6
1 7
1 8
1 9
2 4
2 5
2 6
3 8
3 10
4 15
5 10
1 1
2 2
3 3
4 4
15 20
16 20
7 10
7 20
8 16
8 40
10 11
10 100
10 150
10 300
10 400
12 15
12 24
12 30
12 50
12 100
12 150
12 160
12 200
12 400
12 450
20 24
20 200
20 1000
20 2000
40 50
50 100
50 150
50 2000
50 10000
50 20000
50 100000
50 900000
50 999999
55 60
60 65
60 100
60 70
60 1000
80 100
80 150
80 250
80 300
80 400
80 500
80 600
80 700
80 850
80 80000
80 80001
90 99
90 101
90 200
92 300
92 400
92 600
92 568
93 678
95 9349
99 49923
99 42390
99 12290
99 100000
99 999999
100 101
100 105
100 300
100 400
100 500
100 10000
100 10234
100 23101
100 2301
100 99000
101 1022
120 123
120 133
120 144
120 1494
120 19000
150 200
150 250
150 25000
150 26000
150 29000
150 30000
150 250000
200 200000
200 200020
205 200100
206 207000
220 101020
220 101010
225 101010
226 227
226 230
226 240
226 300
226 400
226 500
226 1000
226 1050
226 1060
300 350
300 450
300 460
300 45600
300 9999
300 10000
400 500
400 5000
400 50000
400 50005
450 40023
450 40320
450 4023
450 1235
450 2220
500 600
500 601
500 602
500 603
500 604
500 605
500 606
500 607
500 608
500 609
500 610
600 700
600 715
600 730
600 745
600 760
600 775
600 790
700 1007
700 1014
700 1021
700 1028
700 1035
700 1042
700 1049
700 1056
700 1063
700 1070
700 1077
700 1084
700 1091
700 1098
850 854
850 954
850 1054
850 2054
850 3054
850 4054
850 5054
850 10054
850 20054
850 30054
850 40054
850 50054
850 100054
900 999
900 1111
900 2222
900 3333
900 4444
900 5555
900 6666
900 7777
900 8888
900 9999
900 11111
900 22222
900 33333
900 44444
900 55555
900 66666
900 77777
