346220 483425
370276 99772
723618 826506
900621 426879
591778 201438
82270 313308
660979 500823
419964 814530
40895 111583
499392 348485
993112 184150
42942 247228
82582 337158
78012 220092
706045 679438
298810 863264
453345 726020
113070 928046
275154 933030
645265 509883
257859 727301
980892 311359
680355 373294
35302 799718
197400 877394
225904 806855
666028 712278
25115 863897
22451 961581
154763 649107
924121 600188
812559 641233
617272 410715
701144 291695
717427 643588
635557 896659
568215 950749
711382 708774
379841 246851
287353 936881
671953 275116
400550 112236
20772 131310
46425 198878
728296 754272
848419 929465
882419 376284
714670 800505
872185 358713
61218 249141
221595 572659
228929 596821
277437 768280
83194 354248
724545 64503
62131 442934
160414 405711
940822 21741
254163 175035
985589 166311
787258 680912
237201 884695
165558 733460
483467 27287
459737 779089
664771 354128
458194 76141
114928 895077
93530 175112
169022 327491
87529 686489
979839 750558
255149 412325
806617 348663
307554 552199
798807 148103
225569 967699
282889 453972
905796 276649
382378 754984
797835 48749
580266 593144
411832 733769
282059 432579
594171 133186
711397 547738
256031 273548
546563 96133
243957 347706
847868 223017
407208 467824
318255 309815
570038 580122
567266 225512
593177 742221
64595 75964
829584 107108
889776 483953
412724 267122
378468 164224
921419 410841
441984 509778
83931 834580
672038 259626
747257 217770
742040 416846
542352 176487
822684 919531
365916 741385
980955 816632
400859 21751
510003 936761
890595 219383
782623 133309
781488 332183
848003 421335
891580 762384
721361 834002
902401 651310
285559 173057
971603 356707
635983 575792
583166 955862
786541 290952
166473 470214
115786 389026
67588 48371
633464 506539
491917 32724
339848 224022
983303 519980
2897 774338
490913 416936
332331 588019
410850 241895
439320 594546
630795 62450
800454 246584
683239 277661
12742 893932
174322 346312
884654 795202
70282 208708
221934 265882
335077 341600
387819 361618
893785 476185
164673 28353
666361 515778
462852 380530
714501 20911
134475 753105
552428 853938
674401 316964
288026 270705
924766 36754
383194 462723
217099 647027
837043 899208
679015 416489
230830 867573
801648 512237
179371 566379
734620 782047
59472 856136
63539 200988
185643 677435
356513 60236
500235 810802
274657 122268
873132 866017
70429 588245
489029 693032
814296 327557
332124 766668
945704 80308
989588 234646
607274 906690
390007 537809
663014 910018
84831 396154
319073 708498
534012 834542
773078 539836
978713 309416
524402 832002
210075 949219
799680 503635
698301 14666
401939 576571
788263 612988
237585 395485
453690 674465
357465 551880
865918 451534
411592 437065
816805 553971
378969 102252
63749 941236
303463 783973
383305 820181
554271 331610
305183 682554
467121 439095
441227 271160
763098 894128
981210 266747
84933 562277
615899 575506
55863 130691
321953 857710
684687 628516
173938 511663
724884 819700
103289 28119
627693 136439
168197 352255
667318 997372
123880 271405
