1 2 2
100 200 125
201 210 89
900 1000 174
862888 908270 445
321318 232302 407
938486 124372 525
635464 534143 509
323535 37278 443
969324 719379 525
956392 178587 525
608467 334088 470
862360 162497 525
927557 933151 383
154523 833556 509
474834 837231 509
863200 90947 525
801721 453520 509
852267 719084 525
696589 36021 509
519391 129831 470
228207 107445 386
178728 825638 509
137524 929603 525
124928 742510 509
482541 904307 525
366186 518052 470
268255 582372 470
505437 711955 509
796103 774990 468
105953 429511 449
181937 224498 386
287913 695229 509
545724 987330 525
803690 122887 509
681731 517577 509
352796 484887 449
368981 339073 441
960622 551643 525
607834 868105 525
694024 219020 509
212995 582818 470
484509 814071 509
6151 201326 383
617533 742271 509
492141 621846 470
800273 435918 509
521571 658267 509
898811 890036 370
407332 947183 525
280622 741730 509
931142 555111 525
344724 217459 443
750327 645400 504
51872 430529 449
284145 18188 443
867038 202247 525
601426 101505 470
968863 133367 525
555242 176482 470
717036 87196 509
47354 669026 509
488697 251486 449
542038 344370 470
444333 153460 449
894053 406743 525
686804 679166 380
679691 140916 509
180005 205261 365
568719 987612 525
679368 543912 509
802601 142335 509
497347 913647 525
283691 773061 509
368219 68353 443
663103 391784 509
2072 87552 351
392044 560761 470
264684 399309 441
184845 359097 443
645082 627013 416
635382 182928 509
386914 115401 443
979968 308590 525
629989 491594 509
450358 600903 470
314833 556421 470
994533 687181 525
550133 440015 470
962544 881981 507
433363 209678 449
589678 37875 470
604390 50477 470
295008 910345 525
772093 433409 509
796282 953962 525
452730 997442 525
260357 326695 407
816582 549916 509
131038 53617 354
786083 157584 509
256592 557872 470
819422 888921 525
815351 343030 509
120837 482001 449
440641 659397 509
313040 486374 449
78877 336559 443
823931 836467 419
271959 104965 443
782052 38917 509
313480 462004 449
78984 640589 509
844378 528075 525
669750 26184 509
96938 309197 443
664750 437611 509
133592 697708 509
253445 819234 509
782535 979068 525
910454 797106 525
368112 537765 470
13351 777960 509
827335 808105 450
611344 194307 470
73785 809069 509
225598 149038 386
298658 189490 443
56236 310549 443
286367 138364 443
892460 196655 525
965649 49136 525
224037 902926 525
893777 63532 525
907104 558314 525
838789 547354 525
436199 459124 400
323448 196014 443
574411 549499 421
229263 23897 386
667323 865681 525
430480 863582 525
719545 533459 509
53920 240414 443
668493 635532 442
412964 173299 449
494637 642241 509
614954 800632 509
991761 25622 525
292295 875864 525
584708 807342 509
891763 847731 445
27415 905749 525
532449 504949 470
679878 969655 525
727650 397167 509
774945 686285 504
688467 57852 509
46072 328095 443
847000 10890 525
550721 744443 509
29956 82274 351
44209 589853 470
190136 991410 525
365865 548729 470
381178 969944 525
741999 964681 525
913318 323889 525
464343 51656 449
93819 131685 354
390896 274006 441
493904 498792 351
273645 158063 443
183195 42137 383
413003 685703 509
46939 982648 525
520701 278437 470
958238 617510 525
343091 44459 443
330334 839438 525
190555 817194 509
52155 908056 525
964903 106091 525
349815 902516 525
933509 473978 525
496573 285561 449
366049 183855 443
679600 462725 509
367681 245444 441
222188 952984 525
715192 563147 509
877336 674765 525
859294 257490 525
4702 525752 470
85652 643081 509
325076 385417 441
488619 470619 413
119054 573020 470
253553 141940 443
727196 623012 509
809319 82487 509
898201 806919 525
913947 307062 525
312429 220662 443
131949 335619 443
940566 523025 525
515229 475010 470
485942 349742 449
707883 469860 509
199831 947398 525
766154 157450 509
305226 893448 525
429407 815087 509
396275 391910 405
282629 657367 509
350346 967476 525
6092 197953 383
103907 154348 375
185152 93432 383
34216 716154 509
651769 112292 509
247960 875121 525
865896 986498 507
562161 378171 470
695564 424218 509
984752 142334 525
846969 323072 525
234092 189143 443
58590 528304 470
177855 295569 443
636615 755651 504
450318 402425 449
882765 292218 525
706201 279075 509
246674 590178 470
883372 140378 525
655343 31648 509
362073 948583 525
621501 972252 525
46319 770998 509
852001 766849 525
971758 675246 525
103137 857929 525
133723 630547 509
467698 644567 509
680653 269935 509
225652 983871 525
404486 23413 443
705319 6258 509
512241 341390 470
855452 483250 525
